sentiment-analysis
…
# Remove words: Chinese characters, t.co, http, alphabetical words, numbers
text_seg <- text_seg %>%
  mutate(word = sub("([\u4E00-\u9FA5]+)|([\u4E00-\u9FA5]+)", "", word)) %>%
  mutate(word = sub("t.co|http", "", word)) %>%
  mutate(word = sub("^[a-zA-Z]$", "", word)) %>%
  mutate(word = sub(".*[0-9]+.*", "", word))
# Drop rows if no text
text_seg[text_seg==""]<-NA
text_seg <- text_seg %>% na.omit()

# Word frequency
text_seg %>%
  count(word, sort = TRUE) 

## # A tibble: 3,306 x 2
##    word                n
##    <chr>           <int>
##  1 amp                24
##  2 students           23
##  3 day                22
##  4 learning           19
##  5 join               16
##  6 de                 15
##  7 love               15
##  8 teacherscollege    15
##  9 education          14
## 10 happy              14
## # ... with 3,296 more rows
…
